Lab0/Lab0.sim/sim_1/behav/xsim/testbench.vcd
$date
   Wed Feb 28 10:38:24 2024
$end
$version
  2023.1
$end
$timescale
  1ps
$end
$scope module testbench $end
$var reg 1 ! a $end
$var reg 1 " b $end
$var reg 1 # bin $end
$var wire 1 $ diff $end
$var wire 1 % bout $end
$var reg 9 & golden_diff [8:0] $end
$var reg 9 ' golden_borrow [8:0] $end
$var reg 1 ( correct $end
$var reg 1 ) clk $end
$var integer 32 * counter [31:0] $end
$scope module FSUB $end
$var wire 1 + In_A $end
$var wire 1 , In_B $end
$var wire 1 - Borrow_in $end
$var wire 1 $ Difference $end
$var wire 1 % Borrow_out $end
$var wire 1 . FirstD $end
$var wire 1 / FirstB_out $end
$var wire 1 0 SecondB_out $end
$scope module HSUB1 $end
$var wire 1 + In_A $end
$var wire 1 , In_B $end
$var wire 1 . Difference $end
$var wire 1 / Borrow_out $end
$var wire 1 1 A_bar $end
$upscope $end
$scope module HSUB2 $end
$var wire 1 . In_A $end
$var wire 1 - In_B $end
$var wire 1 $ Difference $end
$var wire 1 0 Borrow_out $end
$var wire 1 2 A_bar $end
$upscope $end
$upscope $end
$upscope $end
$enddefinitions $end
#0
$dumpvars
0!
0"
0#
0$
0%
b10010110 &
b10001110 '
1(
0)
b0 *
0+
0,
0-
0.
0/
00
11
12
$end
#5000
1)
b1 *
#10000
1#
1$
1%
0)
1-
10
#15000
1)
b10 *
#20000
1"
0#
1$
0)
1,
0-
1.
1/
00
02
#25000
1)
b11 *
#30000
1#
0$
0)
1-
#35000
1)
b100 *
#40000
1!
0"
0#
1$
0%
0)
1+
0,
0-
0/
01
#45000
1)
b101 *
#50000
1#
0$
0)
1-
#55000
1)
b110 *
#60000
1"
0#
0$
0)
1,
0-
0.
12
#65000
1)
b111 *
#70000
1#
1$
1%
0)
1-
10
#75000
1)
b1000 *
#80000
0!
0"
0#
0$
0%
0)
0+
0,
0-
00
11
